…
Die Daten kommen von <https://hystreet.com/>

``` r
load("~/R/socialdistancingdash/hystreet.RData") 

df <- 
  df %>% 
  mutate(hour = lubridate::hour(timestamp),
         wd = lubridate::wday(timestamp, label = TRUE),
         date = lubridate::date(timestamp),
         id = paste0(date, place)) 
df %>% as_tibble()
```

    ## # A tibble: 221,949 x 7
    ##    place    timestamp           pedestrians_cou…  hour wd    date       id      
    ##    <chr>    <dttm>                         <int> <int> <ord> <date>     <chr>   
    ##  1 Annastr… 2020-01-01 00:00:00                0     0 Mi    2020-01-01 2020-01…
    ##  2 Annastr… 2020-01-01 01:00:00                0     1 Mi    2020-01-01 2020-01…
    ##  3 Annastr… 2020-01-01 02:00:00                0     2 Mi    2020-01-01 2020-01…
    ##  4 Annastr… 2020-01-01 03:00:00                0     3 Mi    2020-01-01 2020-01…
    ##  5 Annastr… 2020-01-01 04:00:00                0     4 Mi    2020-01-01 2020-01…
    ##  6 Annastr… 2020-01-01 05:00:00                0     5 Mi    2020-01-01 2020-01…
    ##  7 Annastr… 2020-01-01 06:00:00                0     6 Mi    2020-01-01 2020-01…
    ##  8 Annastr… 2020-01-01 07:00:00                0     7 Mi    2020-01-01 2020-01…
    ##  9 Annastr… 2020-01-01 08:00:00                0     8 Mi    2020-01-01 2020-01…
    ## 10 Annastr… 2020-01-01 09:00:00                0     9 Mi    2020-01-01 2020-01…
    ## # … with 221,939 more rows
…
